<?xml version="1.0" encoding="UTF-8" standalone="no"?>
<!DOCTYPE svg PUBLIC "-//W3C//DTD SVG 1.1//EN"
 "http://www.w3.org/Graphics/SVG/1.1/DTD/svg11.dtd">
<!-- Generated by graphviz version 2.26.3 (20100126.1600)
 -->
<!-- Title: IEncryptedAppTicketListener Pages: 1 -->
<svg width="162pt" height="172pt"
 viewBox="0.00 0.00 162.00 172.00" xmlns="http://www.w3.org/2000/svg" xmlns:xlink="http://www.w3.org/1999/xlink">
<g id="graph1" class="graph" transform="scale(1 1) rotate(0) translate(4 168)">
<title>IEncryptedAppTicketListener</title>
<polygon fill="white" stroke="white" points="-4,5 -4,-168 159,-168 159,5 -4,5"/>
<!-- Node1 -->
<g id="node1" class="node"><title>Node1</title>
<polygon fill="#bfbfbf" stroke="black" points="5.5,-0.5 5.5,-21.5 148.5,-21.5 148.5,-0.5 5.5,-0.5"/>
<text text-anchor="middle" x="77" y="-8.5" font-family="Helvetica,sans-Serif" font-size="10.00">IEncryptedAppTicketListener</text>
</g>
<!-- Node2 -->
<g id="node2" class="node"><title>Node2</title>
<a xlink:href="classgalaxy_1_1api_1_1GalaxyTypeAwareListener.html" target="_top" xlink:title="GalaxyTypeAwareListener\l\&lt; ENCRYPTED_APP_TICKET\l_RETRIEVE \&gt;">
<polygon fill="white" stroke="black" points="-0.5,-58.5 -0.5,-105.5 154.5,-105.5 154.5,-58.5 -0.5,-58.5"/>
<text text-anchor="start" x="7.5" y="-92.5" font-family="Helvetica,sans-Serif" font-size="10.00">GalaxyTypeAwareListener</text>
<text text-anchor="start" x="7.5" y="-79.5" font-family="Helvetica,sans-Serif" font-size="10.00">&lt; ENCRYPTED_APP_TICKET</text>
<text text-anchor="middle" x="77" y="-66.5" font-family="Helvetica,sans-Serif" font-size="10.00">_RETRIEVE &gt;</text>
</a>
</g>
<!-- Node2&#45;&gt;Node1 -->
<g id="edge2" class="edge"><title>Node2&#45;&gt;Node1</title>
<path fill="none" stroke="midnightblue" d="M77,-48.1273C77,-38.5183 77,-28.7499 77,-21.6462"/>
<polygon fill="midnightblue" stroke="midnightblue" points="73.5001,-48.358 77,-58.358 80.5001,-48.3581 73.5001,-48.358"/>
</g>
<!-- Node3 -->
<g id="node4" class="node"><title>Node3</title>
<a xlink:href="classgalaxy_1_1api_1_1IGalaxyListener.html" target="_top" xlink:title="The interface that is implemented by all specific callback listeners.">
<polygon fill="white" stroke="black" points="34.5,-142.5 34.5,-163.5 119.5,-163.5 119.5,-142.5 34.5,-142.5"/>
<text text-anchor="middle" x="77" y="-150.5" font-family="Helvetica,sans-Serif" font-size="10.00">IGalaxyListener</text>
</a>
</g>
<!-- Node3&#45;&gt;Node2 -->
<g id="edge4" class="edge"><title>Node3&#45;&gt;Node2</title>
<path fill="none" stroke="midnightblue" d="M77,-132.191C77,-123.835 77,-114.16 77,-105.548"/>
<polygon fill="midnightblue" stroke="midnightblue" points="73.5001,-132.217 77,-142.217 80.5001,-132.217 73.5001,-132.217"/>
</g>
</g>
</svg>
