<?xml version="1.0" encoding="UTF-8" standalone="no"?>
<!DOCTYPE svg PUBLIC "-//W3C//DTD SVG 1.1//EN"
 "http://www.w3.org/Graphics/SVG/1.1/DTD/svg11.dtd">
<!-- Generated by graphviz version 2.26.3 (20100126.1600)
 -->
<!-- Title: ILeaderboardsRetrieveListener Pages: 1 -->
<svg width="182pt" height="160pt"
 viewBox="0.00 0.00 182.00 160.00" xmlns="http://www.w3.org/2000/svg" xmlns:xlink="http://www.w3.org/1999/xlink">
<g id="graph1" class="graph" transform="scale(1 1) rotate(0) translate(4 156)">
<title>ILeaderboardsRetrieveListener</title>
<polygon fill="white" stroke="white" points="-4,5 -4,-156 179,-156 179,5 -4,5"/>
<!-- Node1 -->
<g id="node1" class="node"><title>Node1</title>
<polygon fill="#bfbfbf" stroke="black" points="12.5,-0.5 12.5,-21.5 161.5,-21.5 161.5,-0.5 12.5,-0.5"/>
<text text-anchor="middle" x="87" y="-8.5" font-family="Helvetica,sans-Serif" font-size="10.00">ILeaderboardsRetrieveListener</text>
</g>
<!-- Node2 -->
<g id="node2" class="node"><title>Node2</title>
<a xlink:href="classgalaxy_1_1api_1_1GalaxyTypeAwareListener.html" target="_top" xlink:title="GalaxyTypeAwareListener\l\&lt; LEADERBOARDS_RETRIEVE \&gt;">
<polygon fill="white" stroke="black" points="0,-59 0,-93 174,-93 174,-59 0,-59"/>
<text text-anchor="start" x="8" y="-80" font-family="Helvetica,sans-Serif" font-size="10.00">GalaxyTypeAwareListener</text>
<text text-anchor="middle" x="87" y="-67" font-family="Helvetica,sans-Serif" font-size="10.00">&lt; LEADERBOARDS_RETRIEVE &gt;</text>
</a>
</g>
<!-- Node2&#45;&gt;Node1 -->
<g id="edge2" class="edge"><title>Node2&#45;&gt;Node1</title>
<path fill="none" stroke="midnightblue" d="M87,-48.6879C87,-39.2415 87,-29.1949 87,-21.8521"/>
<polygon fill="midnightblue" stroke="midnightblue" points="83.5001,-48.922 87,-58.922 90.5001,-48.922 83.5001,-48.922"/>
</g>
<!-- Node3 -->
<g id="node4" class="node"><title>Node3</title>
<a xlink:href="classgalaxy_1_1api_1_1IGalaxyListener.html" target="_top" xlink:title="The interface that is implemented by all specific callback listeners.">
<polygon fill="white" stroke="black" points="44.5,-130.5 44.5,-151.5 129.5,-151.5 129.5,-130.5 44.5,-130.5"/>
<text text-anchor="middle" x="87" y="-138.5" font-family="Helvetica,sans-Serif" font-size="10.00">IGalaxyListener</text>
</a>
</g>
<!-- Node3&#45;&gt;Node2 -->
<g id="edge4" class="edge"><title>Node3&#45;&gt;Node2</title>
<path fill="none" stroke="midnightblue" d="M87,-120.131C87,-111.405 87,-101.391 87,-93.1099"/>
<polygon fill="midnightblue" stroke="midnightblue" points="83.5001,-120.267 87,-130.267 90.5001,-120.267 83.5001,-120.267"/>
</g>
</g>
</svg>
