<?xml version="1.0" encoding="UTF-8" standalone="no"?>
<!DOCTYPE svg PUBLIC "-//W3C//DTD SVG 1.1//EN"
 "http://www.w3.org/Graphics/SVG/1.1/DTD/svg11.dtd">
<!-- Generated by graphviz version 2.26.3 (20100126.1600)
 -->
<!-- Title: IUserDataListener Pages: 1 -->
<svg width="138pt" height="160pt"
 viewBox="0.00 0.00 138.00 160.00" xmlns="http://www.w3.org/2000/svg" xmlns:xlink="http://www.w3.org/1999/xlink">
<g id="graph1" class="graph" transform="scale(1 1) rotate(0) translate(4 156)">
<title>IUserDataListener</title>
<polygon fill="white" stroke="white" points="-4,5 -4,-156 135,-156 135,5 -4,5"/>
<!-- Node1 -->
<g id="node1" class="node"><title>Node1</title>
<polygon fill="#bfbfbf" stroke="black" points="17,-0.5 17,-21.5 113,-21.5 113,-0.5 17,-0.5"/>
<text text-anchor="middle" x="65" y="-8.5" font-family="Helvetica,sans-Serif" font-size="10.00">IUserDataListener</text>
</g>
<!-- Node2 -->
<g id="node2" class="node"><title>Node2</title>
<a xlink:href="classgalaxy_1_1api_1_1GalaxyTypeAwareListener.html" target="_top" xlink:title="GalaxyTypeAwareListener\l\&lt; USER_DATA \&gt;">
<polygon fill="white" stroke="black" points="-0.5,-59 -0.5,-93 130.5,-93 130.5,-59 -0.5,-59"/>
<text text-anchor="start" x="7.5" y="-80" font-family="Helvetica,sans-Serif" font-size="10.00">GalaxyTypeAwareListener</text>
<text text-anchor="middle" x="65" y="-67" font-family="Helvetica,sans-Serif" font-size="10.00">&lt; USER_DATA &gt;</text>
</a>
</g>
<!-- Node2&#45;&gt;Node1 -->
<g id="edge2" class="edge"><title>Node2&#45;&gt;Node1</title>
<path fill="none" stroke="midnightblue" d="M65,-48.6879C65,-39.2415 65,-29.1949 65,-21.8521"/>
<polygon fill="midnightblue" stroke="midnightblue" points="61.5001,-48.922 65,-58.922 68.5001,-48.922 61.5001,-48.922"/>
</g>
<!-- Node3 -->
<g id="node4" class="node"><title>Node3</title>
<a xlink:href="classgalaxy_1_1api_1_1IGalaxyListener.html" target="_top" xlink:title="The interface that is implemented by all specific callback listeners.">
<polygon fill="white" stroke="black" points="22.5,-130.5 22.5,-151.5 107.5,-151.5 107.5,-130.5 22.5,-130.5"/>
<text text-anchor="middle" x="65" y="-138.5" font-family="Helvetica,sans-Serif" font-size="10.00">IGalaxyListener</text>
</a>
</g>
<!-- Node3&#45;&gt;Node2 -->
<g id="edge4" class="edge"><title>Node3&#45;&gt;Node2</title>
<path fill="none" stroke="midnightblue" d="M65,-120.131C65,-111.405 65,-101.391 65,-93.1099"/>
<polygon fill="midnightblue" stroke="midnightblue" points="61.5001,-120.267 65,-130.267 68.5001,-120.267 61.5001,-120.267"/>
</g>
</g>
</svg>
