<?xml version="1.0" encoding="UTF-8" standalone="no"?>
<!DOCTYPE svg PUBLIC "-//W3C//DTD SVG 1.1//EN"
 "http://www.w3.org/Graphics/SVG/1.1/DTD/svg11.dtd">
<!-- Generated by graphviz version 2.26.3 (20100126.1600)
 -->
<!-- Title: ILobbyMemberStateListener Pages: 1 -->
<svg width="162pt" height="160pt"
 viewBox="0.00 0.00 162.00 160.00" xmlns="http://www.w3.org/2000/svg" xmlns:xlink="http://www.w3.org/1999/xlink">
<g id="graph1" class="graph" transform="scale(1 1) rotate(0) translate(4 156)">
<title>ILobbyMemberStateListener</title>
<polygon fill="white" stroke="white" points="-4,5 -4,-156 159,-156 159,5 -4,5"/>
<!-- Node1 -->
<g id="node1" class="node"><title>Node1</title>
<polygon fill="#bfbfbf" stroke="black" points="7.5,-0.5 7.5,-21.5 146.5,-21.5 146.5,-0.5 7.5,-0.5"/>
<text text-anchor="middle" x="77" y="-8.5" font-family="Helvetica,sans-Serif" font-size="10.00">ILobbyMemberStateListener</text>
</g>
<!-- Node2 -->
<g id="node2" class="node"><title>Node2</title>
<a xlink:href="classgalaxy_1_1api_1_1GalaxyTypeAwareListener.html" target="_top" xlink:title="GalaxyTypeAwareListener\l\&lt; LOBBY_MEMBER_STATE \&gt;">
<polygon fill="white" stroke="black" points="-0.5,-59 -0.5,-93 154.5,-93 154.5,-59 -0.5,-59"/>
<text text-anchor="start" x="7.5" y="-80" font-family="Helvetica,sans-Serif" font-size="10.00">GalaxyTypeAwareListener</text>
<text text-anchor="middle" x="77" y="-67" font-family="Helvetica,sans-Serif" font-size="10.00">&lt; LOBBY_MEMBER_STATE &gt;</text>
</a>
</g>
<!-- Node2&#45;&gt;Node1 -->
<g id="edge2" class="edge"><title>Node2&#45;&gt;Node1</title>
<path fill="none" stroke="midnightblue" d="M77,-48.6879C77,-39.2415 77,-29.1949 77,-21.8521"/>
<polygon fill="midnightblue" stroke="midnightblue" points="73.5001,-48.922 77,-58.922 80.5001,-48.922 73.5001,-48.922"/>
</g>
<!-- Node3 -->
<g id="node4" class="node"><title>Node3</title>
<a xlink:href="classgalaxy_1_1api_1_1IGalaxyListener.html" target="_top" xlink:title="The interface that is implemented by all specific callback listeners.">
<polygon fill="white" stroke="black" points="34.5,-130.5 34.5,-151.5 119.5,-151.5 119.5,-130.5 34.5,-130.5"/>
<text text-anchor="middle" x="77" y="-138.5" font-family="Helvetica,sans-Serif" font-size="10.00">IGalaxyListener</text>
</a>
</g>
<!-- Node3&#45;&gt;Node2 -->
<g id="edge4" class="edge"><title>Node3&#45;&gt;Node2</title>
<path fill="none" stroke="midnightblue" d="M77,-120.131C77,-111.405 77,-101.391 77,-93.1099"/>
<polygon fill="midnightblue" stroke="midnightblue" points="73.5001,-120.267 77,-130.267 80.5001,-120.267 73.5001,-120.267"/>
</g>
</g>
</svg>
