<?xml version="1.0" encoding="UTF-8" standalone="no"?>
<!DOCTYPE svg PUBLIC "-//W3C//DTD SVG 1.1//EN"
 "http://www.w3.org/Graphics/SVG/1.1/DTD/svg11.dtd">
<!-- Generated by graphviz version 2.26.3 (20100126.1600)
 -->
<!-- Title: IGameJoinRequestedListener Pages: 1 -->
<svg width="160pt" height="172pt"
 viewBox="0.00 0.00 160.00 172.00" xmlns="http://www.w3.org/2000/svg" xmlns:xlink="http://www.w3.org/1999/xlink">
<g id="graph1" class="graph" transform="scale(1 1) rotate(0) translate(4 168)">
<title>IGameJoinRequestedListener</title>
<polygon fill="white" stroke="white" points="-4,5 -4,-168 157,-168 157,5 -4,5"/>
<!-- Node1 -->
<g id="node1" class="node"><title>Node1</title>
<polygon fill="#bfbfbf" stroke="black" points="3,-0.5 3,-21.5 149,-21.5 149,-0.5 3,-0.5"/>
<text text-anchor="middle" x="76" y="-8.5" font-family="Helvetica,sans-Serif" font-size="10.00">IGameJoinRequestedListener</text>
</g>
<!-- Node2 -->
<g id="node2" class="node"><title>Node2</title>
<a xlink:href="classgalaxy_1_1api_1_1GalaxyTypeAwareListener.html" target="_top" xlink:title="GalaxyTypeAwareListener\l\&lt; GAME_JOIN_REQUESTED\l_LISTENER \&gt;">
<polygon fill="white" stroke="black" points="0,-58.5 0,-105.5 152,-105.5 152,-58.5 0,-58.5"/>
<text text-anchor="start" x="8" y="-92.5" font-family="Helvetica,sans-Serif" font-size="10.00">GalaxyTypeAwareListener</text>
<text text-anchor="start" x="8" y="-79.5" font-family="Helvetica,sans-Serif" font-size="10.00">&lt; GAME_JOIN_REQUESTED</text>
<text text-anchor="middle" x="76" y="-66.5" font-family="Helvetica,sans-Serif" font-size="10.00">_LISTENER &gt;</text>
</a>
</g>
<!-- Node2&#45;&gt;Node1 -->
<g id="edge2" class="edge"><title>Node2&#45;&gt;Node1</title>
<path fill="none" stroke="midnightblue" d="M76,-48.1273C76,-38.5183 76,-28.7499 76,-21.6462"/>
<polygon fill="midnightblue" stroke="midnightblue" points="72.5001,-48.358 76,-58.358 79.5001,-48.3581 72.5001,-48.358"/>
</g>
<!-- Node3 -->
<g id="node4" class="node"><title>Node3</title>
<a xlink:href="classgalaxy_1_1api_1_1IGalaxyListener.html" target="_top" xlink:title="The interface that is implemented by all specific callback listeners.">
<polygon fill="white" stroke="black" points="33.5,-142.5 33.5,-163.5 118.5,-163.5 118.5,-142.5 33.5,-142.5"/>
<text text-anchor="middle" x="76" y="-150.5" font-family="Helvetica,sans-Serif" font-size="10.00">IGalaxyListener</text>
</a>
</g>
<!-- Node3&#45;&gt;Node2 -->
<g id="edge4" class="edge"><title>Node3&#45;&gt;Node2</title>
<path fill="none" stroke="midnightblue" d="M76,-132.191C76,-123.835 76,-114.16 76,-105.548"/>
<polygon fill="midnightblue" stroke="midnightblue" points="72.5001,-132.217 76,-142.217 79.5001,-132.217 72.5001,-132.217"/>
</g>
</g>
</svg>
