<?xml version="1.0" encoding="UTF-8" standalone="no"?>
<!DOCTYPE svg PUBLIC "-//W3C//DTD SVG 1.1//EN"
 "http://www.w3.org/Graphics/SVG/1.1/DTD/svg11.dtd">
<!-- Generated by graphviz version 2.26.3 (20100126.1600)
 -->
<!-- Title: GalaxyID.h Pages: 1 -->
<svg width="144pt" height="88pt"
 viewBox="0.00 0.00 144.00 88.00" xmlns="http://www.w3.org/2000/svg" xmlns:xlink="http://www.w3.org/1999/xlink">
<g id="graph1" class="graph" transform="scale(1 1) rotate(0) translate(4 84)">
<title>GalaxyID.h</title>
<polygon fill="white" stroke="white" points="-4,5 -4,-84 141,-84 141,5 -4,5"/>
<!-- Node1 -->
<g id="node1" class="node"><title>Node1</title>
<polygon fill="#bfbfbf" stroke="black" points="34,-58.5 34,-79.5 100,-79.5 100,-58.5 34,-58.5"/>
<text text-anchor="middle" x="67" y="-66.5" font-family="Helvetica,sans-Serif" font-size="10.00">GalaxyID.h</text>
</g>
<!-- Node2 -->
<g id="node3" class="node"><title>Node2</title>
<a xlink:href="stdint_8h_source.html" target="_top" xlink:title="stdint.h">
<polygon fill="white" stroke="black" points="-0.5,-0.5 -0.5,-21.5 48.5,-21.5 48.5,-0.5 -0.5,-0.5"/>
<text text-anchor="middle" x="24" y="-8.5" font-family="Helvetica,sans-Serif" font-size="10.00">stdint.h</text>
</a>
</g>
<!-- Node1&#45;&gt;Node2 -->
<g id="edge2" class="edge"><title>Node1&#45;&gt;Node2</title>
<path fill="none" stroke="midnightblue" d="M59.1131,-58.3619C53.173,-50.3496 44.8776,-39.1605 37.8412,-29.6696"/>
<polygon fill="midnightblue" stroke="midnightblue" points="40.6041,-27.5193 31.8369,-21.5707 34.9809,-31.6883 40.6041,-27.5193"/>
</g>
<!-- Node3 -->
<g id="node6" class="node"><title>Node3</title>
<polygon fill="white" stroke="#bfbfbf" points="84,-0.5 84,-21.5 136,-21.5 136,-0.5 84,-0.5"/>
<text text-anchor="middle" x="110" y="-8.5" font-family="Helvetica,sans-Serif" font-size="10.00">assert.h</text>
</g>
<!-- Node1&#45;&gt;Node3 -->
<g id="edge6" class="edge"><title>Node1&#45;&gt;Node3</title>
<path fill="none" stroke="midnightblue" d="M74.8869,-58.3619C80.827,-50.3496 89.1224,-39.1605 96.1588,-29.6696"/>
<polygon fill="midnightblue" stroke="midnightblue" points="99.0191,-31.6883 102.163,-21.5707 93.3959,-27.5193 99.0191,-31.6883"/>
</g>
<!-- Node2&#45;&gt;Node2 -->
<g id="edge4" class="edge"><title>Node2&#45;&gt;Node2</title>
<path fill="none" stroke="midnightblue" d="M45.6098,-21.5537C56.387,-23.014 66,-19.4961 66,-11 66,-5.42444 61.86,-1.9928 55.9679,-0.705085"/>
<polygon fill="midnightblue" stroke="midnightblue" points="55.6942,2.80275 45.6098,-0.446259 55.5193,-4.19506 55.6942,2.80275"/>
</g>
</g>
</svg>
