<?xml version="1.0" encoding="UTF-8" standalone="no"?>
<!DOCTYPE svg PUBLIC "-//W3C//DTD SVG 1.1//EN"
 "http://www.w3.org/Graphics/SVG/1.1/DTD/svg11.dtd">
<!-- Generated by graphviz version 2.26.3 (20100126.1600)
 -->
<!-- Title: IGalaxy.h Pages: 1 -->
<svg width="92pt" height="88pt"
 viewBox="0.00 0.00 92.00 88.00" xmlns="http://www.w3.org/2000/svg" xmlns:xlink="http://www.w3.org/1999/xlink">
<g id="graph1" class="graph" transform="scale(1 1) rotate(0) translate(4 84)">
<title>IGalaxy.h</title>
<polygon fill="white" stroke="white" points="-4,5 -4,-84 89,-84 89,5 -4,5"/>
<!-- Node1 -->
<g id="node1" class="node"><title>Node1</title>
<polygon fill="#bfbfbf" stroke="black" points="12.5,-58.5 12.5,-79.5 71.5,-79.5 71.5,-58.5 12.5,-58.5"/>
<text text-anchor="middle" x="42" y="-66.5" font-family="Helvetica,sans-Serif" font-size="10.00">IGalaxy.h</text>
</g>
<!-- Node2 -->
<g id="node3" class="node"><title>Node2</title>
<a xlink:href="GalaxyExport_8h.html" target="_top" xlink:title="Contains a macro used for DLL export.">
<polygon fill="white" stroke="black" points="0,-0.5 0,-21.5 84,-21.5 84,-0.5 0,-0.5"/>
<text text-anchor="middle" x="42" y="-8.5" font-family="Helvetica,sans-Serif" font-size="10.00">GalaxyExport.h</text>
</a>
</g>
<!-- Node1&#45;&gt;Node2 -->
<g id="edge2" class="edge"><title>Node1&#45;&gt;Node2</title>
<path fill="none" stroke="midnightblue" d="M42,-58.3619C42,-50.9219 42,-40.7427 42,-31.7276"/>
<polygon fill="midnightblue" stroke="midnightblue" points="45.5001,-31.5706 42,-21.5707 38.5001,-31.5707 45.5001,-31.5706"/>
</g>
</g>
</svg>
