<?xml version="1.0" encoding="UTF-8" standalone="no"?>
<!DOCTYPE svg PUBLIC "-//W3C//DTD SVG 1.1//EN"
 "http://www.w3.org/Graphics/SVG/1.1/DTD/svg11.dtd">
<!-- Generated by graphviz version 2.26.3 (20100126.1600)
 -->
<!-- Title: IStats.h Pages: 1 -->
<svg width="358pt" height="262pt"
 viewBox="0.00 0.00 358.00 262.00" xmlns="http://www.w3.org/2000/svg" xmlns:xlink="http://www.w3.org/1999/xlink">
<g id="graph1" class="graph" transform="scale(1 1) rotate(0) translate(4 258)">
<title>IStats.h</title>
<polygon fill="white" stroke="white" points="-4,5 -4,-258 355,-258 355,5 -4,5"/>
<!-- Node1 -->
<g id="node1" class="node"><title>Node1</title>
<polygon fill="#bfbfbf" stroke="black" points="197.5,-232.5 197.5,-253.5 248.5,-253.5 248.5,-232.5 197.5,-232.5"/>
<text text-anchor="middle" x="223" y="-240.5" font-family="Helvetica,sans-Serif" font-size="10.00">IStats.h</text>
</g>
<!-- Node2 -->
<g id="node3" class="node"><title>Node2</title>
<a xlink:href="IListenerRegistrar_8h.html" target="_top" xlink:title="Contains data structures and interfaces related to callback listeners.">
<polygon fill="white" stroke="black" points="121,-174.5 121,-195.5 223,-195.5 223,-174.5 121,-174.5"/>
<text text-anchor="middle" x="172" y="-182.5" font-family="Helvetica,sans-Serif" font-size="10.00">IListenerRegistrar.h</text>
</a>
</g>
<!-- Node1&#45;&gt;Node2 -->
<g id="edge2" class="edge"><title>Node1&#45;&gt;Node2</title>
<path fill="none" stroke="midnightblue" d="M213.646,-232.362C206.457,-224.186 196.359,-212.702 187.907,-203.091"/>
<polygon fill="midnightblue" stroke="midnightblue" points="190.527,-200.769 181.295,-195.571 185.27,-205.392 190.527,-200.769"/>
</g>
<!-- Node9 -->
<g id="node19" class="node"><title>Node9</title>
<a xlink:href="GalaxyID_8h.html" target="_top" xlink:title="Contains GalaxyID, which is the class that represents the ID of an entity used by Galaxy Peer...">
<polygon fill="white" stroke="black" points="241,-174.5 241,-195.5 307,-195.5 307,-174.5 241,-174.5"/>
<text text-anchor="middle" x="274" y="-182.5" font-family="Helvetica,sans-Serif" font-size="10.00">GalaxyID.h</text>
</a>
</g>
<!-- Node1&#45;&gt;Node9 -->
<g id="edge20" class="edge"><title>Node1&#45;&gt;Node9</title>
<path fill="none" stroke="midnightblue" d="M232.354,-232.362C239.543,-224.186 249.641,-212.702 258.093,-203.091"/>
<polygon fill="midnightblue" stroke="midnightblue" points="260.73,-205.392 264.705,-195.571 255.473,-200.769 260.73,-205.392"/>
</g>
<!-- Node3 -->
<g id="node5" class="node"><title>Node3</title>
<a xlink:href="GalaxyFactory_8h.html" target="_top" xlink:title="Contains GalaxyFactory, which creates an instance of IGalaxy that allows to control the Galaxy Peer...">
<polygon fill="white" stroke="black" points="41.5,-116.5 41.5,-137.5 130.5,-137.5 130.5,-116.5 41.5,-116.5"/>
<text text-anchor="middle" x="86" y="-124.5" font-family="Helvetica,sans-Serif" font-size="10.00">GalaxyFactory.h</text>
</a>
</g>
<!-- Node2&#45;&gt;Node3 -->
<g id="edge4" class="edge"><title>Node2&#45;&gt;Node3</title>
<path fill="none" stroke="midnightblue" d="M156.226,-174.362C143.376,-165.696 125.015,-153.313 110.29,-143.382"/>
<polygon fill="midnightblue" stroke="midnightblue" points="111.921,-140.26 101.674,-137.571 108.007,-146.064 111.921,-140.26"/>
</g>
<!-- Node7 -->
<g id="node14" class="node"><title>Node7</title>
<a xlink:href="stdint_8h_source.html" target="_top" xlink:title="stdint.h">
<polygon fill="white" stroke="black" points="213.5,-116.5 213.5,-137.5 262.5,-137.5 262.5,-116.5 213.5,-116.5"/>
<text text-anchor="middle" x="238" y="-124.5" font-family="Helvetica,sans-Serif" font-size="10.00">stdint.h</text>
</a>
</g>
<!-- Node2&#45;&gt;Node7 -->
<g id="edge14" class="edge"><title>Node2&#45;&gt;Node7</title>
<path fill="none" stroke="midnightblue" d="M184.105,-174.362C193.688,-165.941 207.264,-154.011 218.393,-144.231"/>
<polygon fill="midnightblue" stroke="midnightblue" points="220.77,-146.801 225.971,-137.571 216.149,-141.543 220.77,-146.801"/>
</g>
<!-- Node8 -->
<g id="node17" class="node"><title>Node8</title>
<polygon fill="white" stroke="#bfbfbf" points="148,-116.5 148,-137.5 196,-137.5 196,-116.5 148,-116.5"/>
<text text-anchor="middle" x="172" y="-124.5" font-family="Helvetica,sans-Serif" font-size="10.00">stdlib.h</text>
</g>
<!-- Node2&#45;&gt;Node8 -->
<g id="edge18" class="edge"><title>Node2&#45;&gt;Node8</title>
<path fill="none" stroke="midnightblue" d="M172,-174.362C172,-166.922 172,-156.743 172,-147.728"/>
<polygon fill="midnightblue" stroke="midnightblue" points="175.5,-147.571 172,-137.571 168.5,-147.571 175.5,-147.571"/>
</g>
<!-- Node4 -->
<g id="node7" class="node"><title>Node4</title>
<a xlink:href="IGalaxy_8h.html" target="_top" xlink:title="Contains IGalaxy, which is the main interface for controlling the Galaxy Peer.">
<polygon fill="white" stroke="black" points="-0.5,-58.5 -0.5,-79.5 58.5,-79.5 58.5,-58.5 -0.5,-58.5"/>
<text text-anchor="middle" x="29" y="-66.5" font-family="Helvetica,sans-Serif" font-size="10.00">IGalaxy.h</text>
</a>
</g>
<!-- Node3&#45;&gt;Node4 -->
<g id="edge6" class="edge"><title>Node3&#45;&gt;Node4</title>
<path fill="none" stroke="midnightblue" d="M75.5453,-116.362C67.4301,-108.104 55.9988,-96.4725 46.4959,-86.8029"/>
<polygon fill="midnightblue" stroke="midnightblue" points="48.8941,-84.2497 39.3884,-79.5707 43.9014,-89.1562 48.8941,-84.2497"/>
</g>
<!-- Node5 -->
<g id="node9" class="node"><title>Node5</title>
<a xlink:href="GalaxyExport_8h.html" target="_top" xlink:title="Contains a macro used for DLL export.">
<polygon fill="white" stroke="black" points="15,-0.5 15,-21.5 99,-21.5 99,-0.5 15,-0.5"/>
<text text-anchor="middle" x="57" y="-8.5" font-family="Helvetica,sans-Serif" font-size="10.00">GalaxyExport.h</text>
</a>
</g>
<!-- Node3&#45;&gt;Node5 -->
<g id="edge12" class="edge"><title>Node3&#45;&gt;Node5</title>
<path fill="none" stroke="midnightblue" d="M83.3237,-116.295C78.5113,-97.0451 68.3222,-56.2889 62.1273,-31.5091"/>
<polygon fill="midnightblue" stroke="midnightblue" points="65.4907,-30.5317 59.6698,-21.6792 58.6997,-32.2295 65.4907,-30.5317"/>
</g>
<!-- Node6 -->
<g id="node11" class="node"><title>Node6</title>
<a xlink:href="Errors_8h.html" target="_top" xlink:title="Contains classes representing exceptions.">
<polygon fill="white" stroke="black" points="113.5,-58.5 113.5,-79.5 164.5,-79.5 164.5,-58.5 113.5,-58.5"/>
<text text-anchor="middle" x="139" y="-66.5" font-family="Helvetica,sans-Serif" font-size="10.00">Errors.h</text>
</a>
</g>
<!-- Node3&#45;&gt;Node6 -->
<g id="edge10" class="edge"><title>Node3&#45;&gt;Node6</title>
<path fill="none" stroke="midnightblue" d="M95.721,-116.362C103.192,-108.186 113.686,-96.7025 122.469,-87.0907"/>
<polygon fill="midnightblue" stroke="midnightblue" points="125.179,-89.3138 129.341,-79.5707 120.011,-84.5918 125.179,-89.3138"/>
</g>
<!-- Node4&#45;&gt;Node5 -->
<g id="edge8" class="edge"><title>Node4&#45;&gt;Node5</title>
<path fill="none" stroke="midnightblue" d="M34.1356,-58.3619C37.8458,-50.6766 42.9669,-40.0686 47.4221,-30.8399"/>
<polygon fill="midnightblue" stroke="midnightblue" points="50.7013,-32.0978 51.8969,-21.5707 44.3974,-29.0545 50.7013,-32.0978"/>
</g>
<!-- Node7&#45;&gt;Node7 -->
<g id="edge16" class="edge"><title>Node7&#45;&gt;Node7</title>
<path fill="none" stroke="midnightblue" d="M259.61,-137.554C270.387,-139.014 280,-135.496 280,-127 280,-121.424 275.86,-117.993 269.968,-116.705"/>
<polygon fill="midnightblue" stroke="midnightblue" points="269.694,-113.197 259.61,-116.446 269.519,-120.195 269.694,-113.197"/>
</g>
<!-- Node9&#45;&gt;Node7 -->
<g id="edge22" class="edge"><title>Node9&#45;&gt;Node7</title>
<path fill="none" stroke="midnightblue" d="M267.397,-174.362C262.525,-166.513 255.762,-155.616 249.95,-146.253"/>
<polygon fill="midnightblue" stroke="midnightblue" points="252.809,-144.221 244.561,-137.571 246.861,-147.913 252.809,-144.221"/>
</g>
<!-- Node10 -->
<g id="node22" class="node"><title>Node10</title>
<polygon fill="white" stroke="#bfbfbf" points="298,-116.5 298,-137.5 350,-137.5 350,-116.5 298,-116.5"/>
<text text-anchor="middle" x="324" y="-124.5" font-family="Helvetica,sans-Serif" font-size="10.00">assert.h</text>
</g>
<!-- Node9&#45;&gt;Node10 -->
<g id="edge24" class="edge"><title>Node9&#45;&gt;Node10</title>
<path fill="none" stroke="midnightblue" d="M283.171,-174.362C290.148,-166.268 299.921,-154.932 308.156,-145.38"/>
<polygon fill="midnightblue" stroke="midnightblue" points="311.009,-147.43 314.887,-137.571 305.707,-142.859 311.009,-147.43"/>
</g>
</g>
</svg>
